{
    "trace_processor_shell": {
        "linux_arm": {
            "hash": "58893933be305d3bfe0a72ebebcacde2ac3ca893",
            "remote_path": "perfetto_binaries/trace_processor_shell/linux_arm/49b4b5dcbc312d8d2c3751cf29238b8efeb4e494/trace_processor_shell"
        },
        "win": {
            "hash": "36d55c632081e09deedd330c3440830a31736f0d",
            "remote_path": "perfetto_binaries/trace_processor_shell/win/0894513760cfda086b5c2a42aca2d3edf5ae8c9f/trace_processor_shell.exe"
        },
        "mac": {
            "hash": "83859d39816cbe1487afa584e9070bd2f3a2fbcb",
            "remote_path": "perfetto_binaries/trace_processor_shell/mac/0894513760cfda086b5c2a42aca2d3edf5ae8c9f/trace_processor_shell"
        },
        "linux_arm64": {
            "hash": "5074025a2898ec41a872e70a5719e417acb0a380",
            "remote_path": "perfetto_binaries/trace_processor_shell/linux_arm64/49b4b5dcbc312d8d2c3751cf29238b8efeb4e494/trace_processor_shell"
        },
        "linux": {
            "hash": "58de31e40cd0c5e320ee812079b95449a44cb1d7",
            "remote_path": "perfetto_binaries/trace_processor_shell/linux/0894513760cfda086b5c2a42aca2d3edf5ae8c9f/trace_processor_shell"
        }
    },
    "power_profile.sql": {
        "hash": "5bc5eae952c72d04403409a56838f66da13394d6",
        "remote_path": "perfetto_data/power_profile.sql/20200713T171147/power_profile.sql"
    }
}